packages/scope-fence/examples/00-rc-charging-ch.csv

#Digilent WaveForms Oscilloscope Acquisition
#Note: scope-fence の例のための計算した値 (実測ではない)。scripts/fakeData.mjs が書く
#Device Name: Discovery2
#Serial Number: SN:000000000000
#Date Time: 2026-09-28 00:00:00.000.000.000
#Sample rate: 100000Hz
#Samples: 2001
#Trigger: Source: Channel 1 Type: Edge Condition: Rise Level: 1 V Hysteresis: 10 mV HoldOff: 0 s
#Channel 1: Range: 500 mV/div Offset: -1 V
#Channel 2: Range: 500 mV/div Offset: -1 V
Time (s),Channel 1 (V),Channel 2 (V)
-1.000000e-2,1.996460,0.009155
-9.990000e-3,1.999207,0.028992
-9.980000e-3,1.997681,0.050659
-9.970000e-3,1.999817,0.070190
-9.960000e-3,2.004089,0.095825
-9.950000e-3,1.998291,0.115051
-9.940000e-3,2.001648,0.124817
-9.930000e-3,1.995850,0.144653
-9.920000e-3,2.003479,0.165710
-9.910000e-3,1.995850,0.187988
-9.900000e-3,2.001343,0.206604
-9.890000e-3,1.998901,0.216980
-9.880000e-3,2.001038,0.238647
-9.870000e-3,1.999207,0.258789
-9.860000e-3,1.996765,0.270996
-9.850000e-3,2.004395,0.292969
-9.840000e-3,1.995850,0.309143
-9.830000e-3,2.000732,0.323486
-9.820000e-3,2.003174,0.336914
-9.810000e-3,2.000732,0.358887
-9.800000e-3,1.998291,0.370483
-9.790000e-3,1.998596,0.388794
-9.780000e-3,2.003784,0.406189
-9.770000e-3,2.000122,0.425720
-9.760000e-3,1.996460,0.440063
-9.750000e-3,1.999512,0.457764
-9.740000e-3,1.996155,0.470276
-9.730000e-3,1.995850,0.487671
-9.720000e-3,2.001343,0.501099
-9.710000e-3,2.002563,0.509644
-9.700000e-3,2.000427,0.529480
-9.690000e-3,2.000122,0.543823
-9.680000e-3,1.998596,0.552979
-9.670000e-3,2.003479,0.567017
-9.660000e-3,1.994934,0.581665
-9.650000e-3,2.001648,0.598145
-9.640000e-3,1.996460,0.612488
-9.630000e-3,1.998291,0.626526
-9.620000e-3,1.995544,0.637512
-9.610000e-3,1.996155,0.654297
-9.600000e-3,2.000732,0.670776
-9.590000e-3,1.999512,0.686035
-9.580000e-3,1.998291,0.698547
-9.570000e-3,2.003784,0.704041
-9.560000e-3,1.998596,0.725403
-9.550000e-3,2.001953,0.729675
-9.540000e-3,1.997986,0.750732
-9.530000e-3,2.001953,0.754089
-9.520000e-3,1.997681,0.765686
-9.510000e-3,2.001038,0.786743
-9.500000e-3,1.999512,0.794983
-9.490000e-3,1.996155,0.809021
-9.480000e-3,1.998901,0.821228
-9.470000e-3,2.001953,0.826721
-9.460000e-3,1.999207,0.846252
-9.450000e-3,2.000122,0.852661
-9.440000e-3,1.997681,0.865479
-9.430000e-3,1.998596,0.872803
-9.420000e-3,2.005005,0.885925
-9.410000e-3,2.004395,0.901794
-9.400000e-3,1.996765,0.912781
-9.390000e-3,2.000732,0.921936
-9.380000e-3,1.994934,0.933228
-9.370000e-3,1.996765,0.942383
-9.360000e-3,2.001038,0.948792
-9.350000e-3,1.999817,0.963440
-9.340000e-3,2.003174,0.974426
-9.330000e-3,2.001343,0.987549
-9.320000e-3,1.999512,0.994263
-9.310000e-3,2.000427,1.003418
-9.300000e-3,2.000732,1.015015
-9.290000e-3,2.003174,1.024780
-9.280000e-3,2.000732,1.029663
-9.270000e-3,2.002258,1.038208
-9.260000e-3,2.002258,1.053162
-9.250000e-3,1.998291,1.057129
-9.240000e-3,2.001953,1.067200
-9.230000e-3,1.996460,1.077576
-9.220000e-3,1.996155,1.086121
-9.210000e-3,2.002258,1.095886
-9.200000e-3,2.003479,1.111450
-9.190000e-3,1.997986,1.113281
-9.180000e-3,2.001343,1.125183
-9.170000e-3,1.996765,1.134338
-9.160000e-3,2.000122,1.138000
-9.150000e-3,2.002258,1.155396
-9.140000e-3,2.003174,1.155701
-9.130000e-3,2.004089,1.167603
-9.120000e-3,2.002869,1.174622
-9.110000e-3,1.997375,1.186829
-9.100000e-3,1.999817,1.190186
-9.090000e-3,1.995239,1.201172
-9.080000e-3,2.004700,1.206970
-9.070000e-3,2.000427,1.212769
-9.060000e-3,1.995239,1.221619
-9.050000e-3,2.004700,1.233215
-9.040000e-3,1.998901,1.243286
-9.030000e-3,2.002869,1.246033
-9.020000e-3,2.004700,1.252747
-9.010000e-3,2.003174,1.257935
-9.000000e-3,1.997375,1.264954
-8.990000e-3,1.997375,1.272278
-8.980000e-3,1.998901,1.283569
-8.970000e-3,1.997375,1.295471
-8.960000e-3,1.996765,1.293945
-8.950000e-3,1.996155,1.301880
-8.940000e-3,2.000427,1.311646
-8.930000e-3,1.997070,1.316223
-8.920000e-3,1.997375,1.324768
-8.910000e-3,2.001953,1.330872
-8.900000e-3,1.997986,1.342163
-8.890000e-3,1.996765,1.346741
-8.880000e-3,2.000122,1.351013
-8.870000e-3,2.003174,1.358643
-8.860000e-3,1.995239,1.360168
-8.850000e-3,2.001953,1.375427
-8.840000e-3,2.001343,1.376343
-8.830000e-3,1.994934,1.380310
-8.820000e-3,1.998596,1.390381
-8.810000e-3,2.001343,1.399231
-8.800000e-3,2.001343,1.402283
-8.790000e-3,2.001343,1.407776
-8.780000e-3,2.003479,1.408691
-8.770000e-3,1.997070,1.418457
-8.760000e-3,2.000122,1.424561
-8.750000e-3,1.999817,1.428833
-8.740000e-3,1.998291,1.433411
-8.730000e-3,2.003174,1.443176
-8.720000e-3,1.995544,1.445007
-8.710000e-3,1.996155,1.449585
-8.700000e-3,1.997681,1.461182
-8.690000e-3,1.996460,1.462097
-8.680000e-3,1.996460,1.470947
-8.670000e-3,1.999512,1.476135
-8.660000e-3,1.996765,1.476135
-8.650000e-3,1.998596,1.481323
-8.640000e-3,1.996765,1.485291
-8.630000e-3,1.995239,1.499329
-8.620000e-3,2.003784,1.504822
-8.610000e-3,2.000732,1.506042
-8.600000e-3,1.997986,1.508484
-8.590000e-3,2.003174,1.514587
-8.580000e-3,2.003174,1.519165
-8.570000e-3,1.999512,1.521606
-8.560000e-3,1.997070,1.524963
-8.550000e-3,2.001648,1.529236
-8.540000e-3,1.997681,1.535950
-8.530000e-3,2.001648,1.540833
-8.520000e-3,1.997070,1.548767
-8.510000e-3,2.001953,1.550293
-8.500000e-3,1.997070,1.561279
-8.490000e-3,1.998291,1.562805
-8.480000e-3,1.996460,1.569519
-8.470000e-3,2.004089,1.568604
-8.460000e-3,2.005005,1.573181
-8.450000e-3,1.995850,1.577148
-8.440000e-3,1.995850,1.579590
-8.430000e-3,2.003479,1.587830
-8.420000e-3,2.000122,1.589966
-8.410000e-3,2.001343,1.590576
-8.400000e-3,1.994934,1.602478
-8.390000e-3,1.995544,1.605835
-8.380000e-3,1.997986,1.604919
-8.370000e-3,2.001038,1.607971
-8.360000e-3,2.004395,1.618652
-8.350000e-3,1.999817,1.623535
-8.340000e-3,1.998901,1.619873
-8.330000e-3,2.000427,1.630554
-8.320000e-3,1.998901,1.629639
-8.310000e-3,1.999817,1.637878
-8.300000e-3,1.996460,1.638794
-8.290000e-3,2.001953,1.642456
-8.280000e-3,1.995544,1.648560
-8.270000e-3,2.003784,1.652527
-8.260000e-3,2.002869,1.656189
-8.250000e-3,1.997681,1.651611
-8.240000e-3,1.995239,1.661987
-8.230000e-3,2.003479,1.666565
-8.220000e-3,1.997375,1.667480
-8.210000e-3,1.998291,1.667786
-8.200000e-3,2.002258,1.673279
-8.190000e-3,1.997375,1.678772
-8.180000e-3,1.999512,1.679993
-8.170000e-3,2.003784,1.676331
-8.160000e-3,1.998596,1.689148
-8.150000e-3,1.997986,1.687317
-8.140000e-3,1.999207,1.690979
-8.130000e-3,2.003174,1.694946
-8.120000e-3,2.001953,1.694641
-8.110000e-3,1.997681,1.696472
-8.100000e-3,1.995544,1.705627
-8.090000e-3,2.002563,1.701050
-8.080000e-3,1.996460,1.708679
-8.070000e-3,2.004700,1.714172
-8.060000e-3,1.995239,1.715698
-8.050000e-3,2.001648,1.712646
-8.040000e-3,2.000122,1.724548
-8.030000e-3,2.000122,1.721802
-8.020000e-3,1.999817,1.728821
-8.010000e-3,2.001953,1.731262
-8.000000e-3,1.999207,1.735535
-7.990000e-3,2.001648,1.731567
-7.980000e-3,2.001343,1.741333
-7.970000e-3,2.000732,1.738892
-7.960000e-3,1.996765,1.746521
-7.950000e-3,2.003784,1.743469
-7.940000e-3,2.004089,1.741943
-7.930000e-3,1.998596,1.747742
-7.920000e-3,2.003174,1.747131
-7.910000e-3,2.002258,1.756592
-7.900000e-3,2.002258,1.756592
-7.890000e-3,1.998291,1.754456
-7.880000e-3,2.001343,1.766052
-7.870000e-3,1.995544,1.767578
-7.860000e-3,2.000122,1.769714
-7.850000e-3,2.002563,1.767883
-7.840000e-3,1.999512,1.766663
-7.830000e-3,1.995544,1.775818
-7.820000e-3,1.998901,1.770935
-7.810000e-3,2.000427,1.779785
-7.800000e-3,1.997681,1.781921
-7.790000e-3,1.996765,1.780701
-7.780000e-3,2.003174,1.783447
-7.770000e-3,1.995544,1.789551
-7.760000e-3,1.999817,1.793518
-7.750000e-3,2.001953,1.794128
-7.740000e-3,2.004700,1.788635
-7.730000e-3,2.004089,1.799622
-7.720000e-3,1.998901,1.800537
-7.710000e-3,1.995544,1.799316
-7.700000e-3,2.002563,1.799927
-7.690000e-3,1.999512,1.804810
-7.680000e-3,1.996765,1.802063
-7.670000e-3,1.995850,1.807556
-7.660000e-3,2.003174,1.812439
-7.650000e-3,2.004395,1.809082
-7.640000e-3,2.002258,1.810913
-7.630000e-3,2.000427,1.813049
-7.620000e-3,2.001343,1.814575
-7.610000e-3,1.996765,1.819763
-7.600000e-3,1.995850,1.818848
-7.590000e-3,2.002258,1.820374
-7.580000e-3,1.996765,1.820984
-7.570000e-3,1.998596,1.829834
-7.560000e-3,1.998291,1.824646
-7.550000e-3,1.997070,1.831970
-7.540000e-3,1.995239,1.834717
-7.530000e-3,1.998291,1.831970
-7.520000e-3,1.995239,1.836548
-7.510000e-3,1.999207,1.832581
-7.500000e-3,1.999207,1.832275
-7.490000e-3,1.995544,1.835327
-7.480000e-3,2.000427,1.836853
-7.470000e-3,2.004700,1.842651
-7.460000e-3,2.000732,1.843262
-7.450000e-3,2.000427,1.846008
-7.440000e-3,2.002869,1.846008
-7.430000e-3,2.000427,1.851501
-7.420000e-3,1.999512,1.847229
-7.410000e-3,2.004395,1.847229
-7.400000e-3,2.000732,1.847839
-7.390000e-3,1.998901,1.855164
-7.380000e-3,2.003784,1.853333
-7.370000e-3,1.995544,1.861572
-7.360000e-3,2.003174,1.853638
-7.350000e-3,2.002869,1.855774
-7.340000e-3,1.999207,1.856079
-7.330000e-3,1.999512,1.860046
-7.320000e-3,1.996460,1.863403
-7.310000e-3,1.996765,1.866455
-7.300000e-3,1.997986,1.870117
-7.290000e-3,1.996155,1.863098
-7.280000e-3,2.002258,1.866150
-7.270000e-3,1.999512,1.870728
-7.260000e-3,1.997070,1.875305
-7.250000e-3,1.995239,1.876221
-7.240000e-3,1.996765,1.872864
-7.230000e-3,2.003479,1.871033
-7.220000e-3,2.001038,1.874695
-7.210000e-3,2.005005,1.877441
-7.200000e-3,1.999817,1.881714
-7.190000e-3,2.003174,1.881409
-7.180000e-3,1.998596,1.879883
-7.170000e-3,1.997986,1.883545
-7.160000e-3,1.996155,1.879883
-7.150000e-3,2.003174,1.888428
-7.140000e-3,1.995239,1.886597
-7.130000e-3,2.005005,1.891174
-7.120000e-3,1.995850,1.892090
-7.110000e-3,2.003479,1.886292
-7.100000e-3,1.996765,1.887207
-7.090000e-3,2.003479,1.896057
-7.080000e-3,1.997986,1.896362
-7.070000e-3,2.000732,1.889343
-7.060000e-3,2.003174,1.890564
-7.050000e-3,1.999207,1.899109
-7.040000e-3,1.998596,1.896667
-7.030000e-3,2.004395,1.898499
-7.020000e-3,1.998901,1.898193
-7.010000e-3,1.996155,1.897278
-7.000000e-3,2.000122,1.903687
-6.990000e-3,1.999512,1.905212
-6.980000e-3,2.003784,1.907349
-6.970000e-3,2.000427,1.908875
-6.960000e-3,1.996460,1.900330
-6.950000e-3,2.004395,1.907043
-6.940000e-3,1.998596,1.908875
-6.930000e-3,2.003479,1.908569
-6.920000e-3,2.001343,1.907043
-6.910000e-3,2.001648,1.907959
-6.900000e-3,1.999207,1.911926
-6.890000e-3,1.997986,1.907959
-6.880000e-3,2.003174,1.915283
-6.870000e-3,1.996765,1.915894
-6.860000e-3,1.996155,1.911316
-6.850000e-3,2.003174,1.916809
-6.840000e-3,2.003784,1.916809
-6.830000e-3,1.996155,1.911926
-6.820000e-3,1.998291,1.919556
-6.810000e-3,1.997375,1.918335
-6.800000e-3,2.000732,1.914673
-6.790000e-3,1.997681,1.915283
-6.780000e-3,2.002563,1.924744
-6.770000e-3,2.002258,1.924744
-6.760000e-3,1.999512,1.921692
-6.750000e-3,2.003174,1.922913
-6.740000e-3,1.997070,1.928406
-6.730000e-3,1.995239,1.926880
-6.720000e-3,1.995239,1.923218
-6.710000e-3,1.996460,1.926270
-6.700000e-3,1.995239,1.921997
-6.690000e-3,1.999512,1.930237
-6.680000e-3,1.999512,1.932983
-6.670000e-3,2.002563,1.931763
-6.660000e-3,1.996765,1.927185
-6.650000e-3,2.001343,1.927185
-6.640000e-3,2.001648,1.933899
-6.630000e-3,1.999512,1.926880
-6.620000e-3,2.002563,1.933594
-6.610000e-3,1.995544,1.934509
-6.600000e-3,1.997375,1.929321
-6.590000e-3,1.997070,1.937561
-6.580000e-3,1.996765,1.936951
-6.570000e-3,2.003784,1.930847
-6.560000e-3,2.002563,1.933289
-6.550000e-3,2.004089,1.939087
-6.540000e-3,1.995850,1.939392
-6.530000e-3,1.995850,1.942444
-6.520000e-3,2.003174,1.941833
-6.510000e-3,1.995850,1.943359
-6.500000e-3,2.004395,1.941833
-6.490000e-3,1.995544,1.936646
-6.480000e-3,1.995544,1.943359
-6.470000e-3,2.000427,1.940918
-6.460000e-3,1.995239,1.946716
-6.450000e-3,2.004700,1.940002
-6.440000e-3,2.004395,1.939392
-6.430000e-3,2.004700,1.945801
-6.420000e-3,1.999817,1.943665
-6.410000e-3,2.000122,1.949463
-6.400000e-3,2.001343,1.949768
-6.390000e-3,1.998901,1.950684
-6.380000e-3,1.998901,1.947021
-6.370000e-3,1.995544,1.943665
-6.360000e-3,1.999817,1.952209
-6.350000e-3,2.000427,1.948242
-6.340000e-3,2.002258,1.949463
-6.330000e-3,1.997070,1.953735
-6.320000e-3,2.003174,1.954651
-6.310000e-3,2.004700,1.954346
-6.300000e-3,1.997681,1.949158
-6.290000e-3,1.995544,1.954956
-6.280000e-3,2.004700,1.955261
-6.270000e-3,1.995239,1.954956
-6.260000e-3,2.001343,1.955261
-6.250000e-3,2.003784,1.948853
-6.240000e-3,1.998596,1.957397
-6.230000e-3,1.995544,1.951904
-6.220000e-3,1.997986,1.950073
-6.210000e-3,2.000122,1.954956
-6.200000e-3,2.004395,1.958618
-6.190000e-3,2.002563,1.951904
-6.180000e-3,2.000122,1.958618
-6.170000e-3,1.996460,1.957092
-6.160000e-3,1.997681,1.953125
-6.150000e-3,2.004700,1.957092
-6.140000e-3,2.002869,1.957092
-6.130000e-3,2.000427,1.959534
-6.120000e-3,1.999512,1.961060
-6.110000e-3,1.995239,1.961670
-6.100000e-3,2.002563,1.958618
-6.090000e-3,2.004089,1.955566
-6.080000e-3,2.003479,1.961365
-6.070000e-3,1.994934,1.964722
-6.060000e-3,2.000122,1.962280
-6.050000e-3,2.002563,1.956787
-6.040000e-3,1.997986,1.965942
-6.030000e-3,2.004395,1.967468
-6.020000e-3,2.004700,1.961060
-6.010000e-3,1.998901,1.967468
-6.000000e-3,1.999512,1.959839
-5.990000e-3,2.000122,1.963806
-5.980000e-3,2.003174,1.968994
-5.970000e-3,2.004089,1.964722
-5.960000e-3,2.002563,1.960754
-5.950000e-3,1.998901,1.961975
-5.940000e-3,1.999512,1.965332
-5.930000e-3,2.003174,1.968079
-5.920000e-3,1.997986,1.967163
-5.910000e-3,1.995544,1.968079
-5.900000e-3,2.001648,1.965942
-5.890000e-3,1.999817,1.964111
-5.880000e-3,1.998901,1.965942
-5.870000e-3,2.003784,1.963196
-5.860000e-3,1.997681,1.968994
-5.850000e-3,2.000732,1.971436
-5.840000e-3,1.997986,1.968689
-5.830000e-3,1.998291,1.972961
-5.820000e-3,2.001648,1.972656
-5.810000e-3,2.002869,1.973267
-5.800000e-3,2.001038,1.972961
-5.790000e-3,2.002563,1.968384
-5.780000e-3,1.998291,1.968994
-5.770000e-3,1.995850,1.975708
-5.760000e-3,1.997070,1.972656
-5.750000e-3,1.999207,1.967163
-5.740000e-3,2.003784,1.968079
-5.730000e-3,2.003174,1.972351
-5.720000e-3,1.995239,1.970215
-5.710000e-3,1.999817,1.969604
-5.700000e-3,2.000122,1.972351
-5.690000e-3,1.995239,1.968384
-5.680000e-3,1.995544,1.969910
-5.670000e-3,2.001343,1.969604
-5.660000e-3,1.997070,1.978149
-5.650000e-3,1.998596,1.979370
-5.640000e-3,2.002869,1.974487
-5.630000e-3,2.003784,1.970825
-5.620000e-3,1.997375,1.979675
-5.610000e-3,1.998596,1.971741
-5.600000e-3,2.000427,1.979675
-5.590000e-3,2.001953,1.979370
-5.580000e-3,1.997375,1.974792
-5.570000e-3,2.000122,1.975403
-5.560000e-3,2.004395,1.981201
-5.550000e-3,1.995544,1.981201
-5.540000e-3,2.003174,1.974792
-5.530000e-3,2.004700,1.972351
-5.520000e-3,2.002563,1.980896
-5.510000e-3,1.995239,1.979065
-5.500000e-3,1.996460,1.976318
-5.490000e-3,1.995544,1.973877
-5.480000e-3,2.002563,1.983032
-5.470000e-3,2.004700,1.976929
-5.460000e-3,1.996155,1.981201
-5.450000e-3,2.004395,1.974792
-5.440000e-3,1.998596,1.981201
-5.430000e-3,2.002869,1.982727
-5.420000e-3,2.003174,1.979980
-5.410000e-3,2.002869,1.979065
-5.400000e-3,2.000122,1.983337
-5.390000e-3,1.996155,1.979065
-5.380000e-3,2.004700,1.982727
-5.370000e-3,2.001038,1.976013
-5.360000e-3,1.998901,1.984863
-5.350000e-3,1.995544,1.977234
-5.340000e-3,2.000427,1.977844
-5.330000e-3,2.004700,1.978760
-5.320000e-3,1.997070,1.985474
-5.310000e-3,1.995239,1.983643
-5.300000e-3,2.000427,1.985168
-5.290000e-3,1.996765,1.985474
-5.280000e-3,2.001953,1.982117
-5.270000e-3,2.000122,1.987000
-5.260000e-3,1.999512,1.980591
-5.250000e-3,1.996460,1.982422
-5.240000e-3,1.998291,1.985474
-5.230000e-3,1.996765,1.987000
-5.220000e-3,2.000427,1.984863
-5.210000e-3,1.999512,1.986084
-5.200000e-3,2.001038,1.984558
-5.190000e-3,1.997681,1.987000
-5.180000e-3,2.004395,1.979980
-5.170000e-3,2.004089,1.982727
-5.160000e-3,2.001953,1.979980
-5.150000e-3,1.998596,1.980591
-5.140000e-3,1.997681,1.987305
-5.130000e-3,2.001648,1.981812
-5.120000e-3,1.999817,1.980896
-5.110000e-3,2.005005,1.983032
-5.100000e-3,2.001038,1.986694
-5.090000e-3,1.998901,1.982117
-5.080000e-3,2.003174,1.983643
-5.070000e-3,1.995850,1.985168
-5.060000e-3,2.004395,1.982117
-5.050000e-3,2.002258,1.983337
-5.040000e-3,1.999512,1.988525
-5.030000e-3,1.997986,1.983643
-5.020000e-3,1.994934,1.983032
-5.010000e-3,2.003479,1.987000
-5.000000e-3,0.004578,1.991272
-4.990000e-3,0.000000,1.965332
-4.980000e-3,-0.003662,1.947327
-4.970000e-3,0.003662,1.925964
-4.960000e-3,0.000916,1.904297
-4.950000e-3,0.001831,1.891479
-4.940000e-3,0.003967,1.867371
-4.930000e-3,0.002136,1.853027
-4.920000e-3,0.001526,1.837463
-4.910000e-3,0.004578,1.818237
-4.900000e-3,-0.004578,1.795349
-4.890000e-3,-0.001526,1.777649
-4.880000e-3,-0.000305,1.763611
-4.870000e-3,-0.000916,1.741638
-4.860000e-3,-0.003357,1.730652
-4.850000e-3,0.004272,1.714172
-4.840000e-3,0.002136,1.692200
-4.830000e-3,-0.000610,1.674805
-4.820000e-3,0.003967,1.658325
-4.810000e-3,0.002136,1.645203
-4.800000e-3,-0.000916,1.629028
-4.790000e-3,-0.001526,1.606140
-4.780000e-3,-0.004578,1.598206
-4.770000e-3,0.000305,1.576843
-4.760000e-3,0.000000,1.566467
-4.750000e-3,-0.003052,1.546021
-4.740000e-3,-0.001221,1.527100
-4.730000e-3,0.000305,1.512146
-4.720000e-3,0.003967,1.505432
-4.710000e-3,0.000916,1.484680
-4.700000e-3,0.002136,1.475220
-4.690000e-3,-0.003357,1.452637
-4.680000e-3,-0.002136,1.446533
-4.670000e-3,0.001831,1.427307
-4.660000e-3,-0.004272,1.413879
-4.650000e-3,-0.000916,1.403809
-4.640000e-3,-0.001526,1.390381
-4.630000e-3,0.001526,1.369629
-4.620000e-3,-0.004883,1.359253
-4.610000e-3,0.001526,1.347961
-4.600000e-3,0.001221,1.333008
-4.590000e-3,-0.001221,1.315918
-4.580000e-3,0.002136,1.300964
-4.570000e-3,0.000000,1.294861
-4.560000e-3,0.000916,1.283264
-4.550000e-3,0.003357,1.266479
-4.540000e-3,0.003662,1.254883
-4.530000e-3,-0.000916,1.236877
-4.520000e-3,0.000000,1.228027
-4.510000e-3,-0.000305,1.220093
-4.500000e-3,0.001221,1.209717
-4.490000e-3,0.003662,1.193542
-4.480000e-3,0.003052,1.185608
-4.470000e-3,-0.004883,1.170654
-4.460000e-3,0.001526,1.158142
-4.450000e-3,0.002136,1.145325
-4.440000e-3,0.001831,1.139832
-4.430000e-3,-0.004578,1.122437
-4.420000e-3,-0.003052,1.114502
-4.410000e-3,0.001526,1.097107
-4.400000e-3,0.004883,1.094666
-4.390000e-3,-0.004272,1.076660
-4.380000e-3,-0.002747,1.069641
-4.370000e-3,-0.000610,1.061707
-4.360000e-3,0.003052,1.043396
-4.350000e-3,-0.004578,1.038818
-4.340000e-3,-0.004578,1.026611
-4.330000e-3,0.000916,1.014404
-4.320000e-3,0.000305,1.004028
-4.310000e-3,-0.001831,0.999451
-4.300000e-3,0.003357,0.984802
-4.290000e-3,-0.004883,0.981445
-4.280000e-3,0.004578,0.964355
-4.270000e-3,0.001221,0.953979
-4.260000e-3,-0.003357,0.946655
-4.250000e-3,-0.003662,0.934753
-4.240000e-3,-0.001526,0.930786
-4.230000e-3,0.000305,0.916748
-4.220000e-3,-0.001831,0.913086
-4.210000e-3,-0.000916,0.906067
-4.200000e-3,-0.003052,0.893860
-4.190000e-3,-0.001526,0.880432
-4.180000e-3,0.000305,0.879822
-4.170000e-3,0.002441,0.866394
-4.160000e-3,-0.000916,0.860291
-4.150000e-3,0.001526,0.846252
-4.140000e-3,0.003052,0.837708
-4.130000e-3,-0.004578,0.835876
-4.120000e-3,-0.002136,0.823364
-4.110000e-3,-0.001221,0.818787
-4.100000e-3,0.000916,0.804138
-4.090000e-3,-0.003357,0.796509
-4.080000e-3,0.003967,0.794678
-4.070000e-3,-0.003357,0.788269
-4.060000e-3,-0.003662,0.772095
-4.050000e-3,-0.001221,0.764160
-4.040000e-3,0.001221,0.757751
-4.030000e-3,0.004578,0.751648
-4.020000e-3,-0.000305,0.746155
-4.010000e-3,0.000305,0.734558
-4.000000e-3,0.000305,0.730286
-3.990000e-3,0.003052,0.722046
-3.980000e-3,-0.000610,0.711365
-3.970000e-3,-0.003052,0.707092
-3.960000e-3,-0.002136,0.706482
-3.950000e-3,-0.002747,0.698853
-3.940000e-3,0.000000,0.684204
-3.930000e-3,0.003052,0.679321
-3.920000e-3,0.003357,0.678406
-3.910000e-3,0.003662,0.671387
-3.900000e-3,0.002136,0.657349
-3.890000e-3,0.001831,0.650635
-3.880000e-3,-0.004272,0.643921
-3.870000e-3,0.000916,0.644226
-3.860000e-3,0.004578,0.632629
-3.850000e-3,-0.002441,0.628357
-3.840000e-3,0.002136,0.619507
-3.830000e-3,0.003662,0.616455
-3.820000e-3,-0.001526,0.615234
-3.810000e-3,-0.003662,0.607300
-3.800000e-3,-0.003357,0.600281
-3.790000e-3,0.000610,0.597229
-3.780000e-3,0.002441,0.588074
-3.770000e-3,0.000000,0.577087
-3.760000e-3,0.000000,0.578308
-3.750000e-3,0.000000,0.565491
-3.740000e-3,0.004272,0.560303
-3.730000e-3,0.002747,0.558167
